email,Prénom,Nom,Téléphone,Société,Forme juridique
w.giry@ealis-digital.com,william,Giry,06 11 15 70 07,,SARL
annegaelle@studimetrie.com,Anne-Gaëlle,Manac'h,06 73 70 75 34,,SARL
aurelien@bientotchezsoi.como,Aurélien,Galoppe,06 10 37 41 85,Test,SARL
laurette@labadie.nomo,Aurélien,Galoppe,06 10 37 41 85,Test,SA
annegaelle@bientotchezsoi.com,Anne Gaelle,Manac'h,06 73 70 75 34,Julatis,SARL
aurelien@bientotchezsoi.fr,Anne-Gaëlle,Manac'h,06 10 37 41 85,Name,SARL
agaloppe@mo.com,Anne-Gaëlle,Manac'h,06 10 37 41 85,name,SARL
agaloppe@me.com,Aurélien,Galoppe,06 10 37 41 85,Dream Dealer,SARL
julia@bientotchezsoi.com,Julia,Trividic,06 06 06 06 06,juju,SARL
webadmin@edmond.immo,Gary,Cooper,06 77 77 77 77,Los Pistoleros SAS,SA
edmond.immo@gmail.com,Polly,Gray,06 00 00 00 00,Distillery,Auto-entrepreneur
aurelien@bientotchezsoi.com,Aurélien,Galoppe,06 10 37 41 85,Dream dealer,Auto-entrepreneur
f.marechal@laforet.com,Fabien,MARECHAL,33 61 29 18 62,MGI,EURL
urbannorbertimmobilier@hotmail.com,Norbert ,Urban ,06 72 91 13 70,Urban Norbert immobilier ,Auto-entrepreneur
ericscimone@gmail.com,Eric,Scimone,04 93 52 68 68,CEC ,EURL
stefrieux@outlook.fr,Stéphane,Rieux,06 73 70 75 34,Barry White Immo,SA
gregor@immoby.fr,Grégor,NOIREZ,06 29 21 50 13,IMMOBY SARL,SARL
fbo@monchasseurimmo.com,Frédéric,Bourelly,06 09 83 91 93,Sas netac,SAS
l.fournier@amarym.com,Loïc,Fournier,07 89 35 24 60,Amarym ,SARL
alexandre.dejaham@eraimmo.fr,Alexandre,De Jaham,05 96 61 13 13,STIC,EURL
agaloppe@meee.com,Aurélien,Galoppe,06 10 37 41 85,ccccc,SAS
stephane.veaux@silmatec-gti.fr,Stéphane,VEAUX,06 07 05 91 12,SilmaTec GTi,SARL
jhavez.serenity@gmail.com,Jerome,Havez,06 60 84 69 01,GJI,SAS
agaloppe@io.com,Aurélien,Galoppe,06 10 37 41 85,Dream dealer,Auto-entrepreneur
julia.triv21@gmail.com,Juju,Tritri,06 28 17 91 08,Julimo,SARL
christophe.guichard@centreimmobilierleman.fr,Christophe,Guichard,07 61 67 58 95,FVI,SAS
pduqueprieto@laforet.com,Patrick,Duque Prieto,06 20 23 61 90,Transactions 21,SARL
