<?xml version="1.0" encoding="utf-8"?>
<!-- Generator: Adobe Illustrator 24.0.1, SVG Export Plug-In . SVG Version: 6.00 Build 0)  -->
<svg version="1.1" id="Calque_1" xmlns="http://www.w3.org/2000/svg" xmlns:xlink="http://www.w3.org/1999/xlink" x="0px" y="0px"
	 viewBox="0 0 12.5 17.8" style="enable-background:new 0 0 12.5 17.8;" xml:space="preserve">
<path d="M11.5,3h-3H7.3V2.3V1c0-0.6-0.4-1-1-1s-1,0.4-1,1v1.6V3H4H1C0.4,3,0,3.4,0,4v5c0,0.6,0.4,1,1,1h3h1.3v0.4v5.4h-2
	c-0.6,0-1,0.4-1,1s0.4,1,1,1h6c0.6,0,1-0.4,1-1s-0.4-1-1-1h-2v-5.2V10h1.3h3c0.6,0,1-0.4,1-1V4C12.5,3.4,12.1,3,11.5,3z M10.5,8H2V5
	h8.5V8z"/>
</svg>
